// Jest Snapshot v1, https://goo.gl/fbAQLP

exports[`render <BestSellers /> module 1`] = `
<DocumentFragment>
  <article
    class="contentWrapper"
  >
    <div
      class="products"
    >
      <article
        class="card"
      >
        <div
          class="header"
        >
          <span
            class="tag"
          >
            Antone
          </span>
          <span
            class="tag"
          >
            Dianna
          </span>
          <button
            aria-label="add to favorites"
            class="button circle icon"
            type="button"
          >
            <svg
              aria-hidden="true"
              aria-label="favorite icon"
              clip-rule="evenodd"
              fill-rule="evenodd"
              focusable="false"
              viewBox="0 0 24 24"
              xmlns="http://www.w3.org/2000/svg"
            >
              <path
                d="M12 21.593C6.37 16.054 1 11.296 1 7.191 1 3.4 4.068 2 6.281 2c1.312 0 4.151.501 5.719 4.457 1.59-3.968 4.464-4.447 5.726-4.447C20.266 2.01 23 3.631 23 7.191c0 4.069-5.136 8.625-11 14.402M17.726 1.01c-2.203 0-4.446 1.042-5.726 3.238C10.715 2.042 8.478 1 6.281 1 3.098 1 0 3.187 0 7.191 0 11.852 5.571 16.62 12 23c6.43-6.38 12-11.148 12-15.809 0-4.011-3.095-6.181-6.274-6.181"
              />
            </svg>
          </button>
        </div>
        <figure
          aria-label="fan heater | Handmade"
          class="thumb"
        >
          <img
            alt="fan heater | Handmade"
            height="423"
            loading="lazy"
            src="/images/e0.jpeg"
            width="638"
          />
        </figure>
        <div
          class="wrap"
        >
          <h2
            class="title"
          >
            <a
              class="link"
              href="/"
            >
              fan heater
            </a>
          </h2>
          <h3
            class="subtitle"
          >
            Handmade
          </h3>
          <p
            class="overline"
          >
            Palatine
          </p>
          <div
            class="priceWrap"
          >
            <span
              class="label"
            >
              Granite
            </span>
            <div
              class="priceBox"
            >
              <div
                class="oldPrice"
              >
                377.00
              </div>
              <div
                class="price"
              >
                315.00
              </div>
            </div>
          </div>
        </div>
      </article>
      <article
        class="card"
      >
        <div
          class="header"
        >
          <span
            class="tag"
          >
            Antone
          </span>
          <span
            class="tag"
          >
            Dianna
          </span>
          <button
            aria-label="add to favorites"
            class="button circle icon"
            type="button"
          >
            <svg
              aria-hidden="true"
              aria-label="favorite icon"
              clip-rule="evenodd"
              fill-rule="evenodd"
              focusable="false"
              viewBox="0 0 24 24"
              xmlns="http://www.w3.org/2000/svg"
            >
              <path
                d="M12 21.593C6.37 16.054 1 11.296 1 7.191 1 3.4 4.068 2 6.281 2c1.312 0 4.151.501 5.719 4.457 1.59-3.968 4.464-4.447 5.726-4.447C20.266 2.01 23 3.631 23 7.191c0 4.069-5.136 8.625-11 14.402M17.726 1.01c-2.203 0-4.446 1.042-5.726 3.238C10.715 2.042 8.478 1 6.281 1 3.098 1 0 3.187 0 7.191 0 11.852 5.571 16.62 12 23c6.43-6.38 12-11.148 12-15.809 0-4.011-3.095-6.181-6.274-6.181"
              />
            </svg>
          </button>
        </div>
        <figure
          aria-label="thermal mass refrigerator | Fantastic"
          class="thumb"
        >
          <img
            alt="thermal mass refrigerator | Fantastic"
            height="423"
            loading="lazy"
            src="/images/e1.jpeg"
            width="638"
          />
        </figure>
        <div
          class="wrap"
        >
          <h2
            class="title"
          >
            <a
              class="link"
              href="/"
            >
              thermal mass refrigerator
            </a>
          </h2>
          <h3
            class="subtitle"
          >
            Fantastic
          </h3>
          <p
            class="overline"
          >
            Johnson City
          </p>
          <div
            class="priceWrap"
          >
            <span
              class="label"
            >
              Plastic
            </span>
            <div
              class="priceBox"
            >
              <div
                class="oldPrice"
              >
                254.00
              </div>
              <div
                class="price"
              >
                603.00
              </div>
            </div>
          </div>
        </div>
      </article>
      <article
        class="card"
      >
        <div
          class="header"
        >
          <span
            class="tag"
          >
            Antone
          </span>
          <span
            class="tag"
          >
            Dianna
          </span>
          <button
            aria-label="add to favorites"
            class="button circle icon"
            type="button"
          >
            <svg
              aria-hidden="true"
              aria-label="favorite icon"
              clip-rule="evenodd"
              fill-rule="evenodd"
              focusable="false"
              viewBox="0 0 24 24"
              xmlns="http://www.w3.org/2000/svg"
            >
              <path
                d="M12 21.593C6.37 16.054 1 11.296 1 7.191 1 3.4 4.068 2 6.281 2c1.312 0 4.151.501 5.719 4.457 1.59-3.968 4.464-4.447 5.726-4.447C20.266 2.01 23 3.631 23 7.191c0 4.069-5.136 8.625-11 14.402M17.726 1.01c-2.203 0-4.446 1.042-5.726 3.238C10.715 2.042 8.478 1 6.281 1 3.098 1 0 3.187 0 7.191 0 11.852 5.571 16.62 12 23c6.43-6.38 12-11.148 12-15.809 0-4.011-3.095-6.181-6.274-6.181"
              />
            </svg>
          </button>
        </div>
        <figure
          aria-label="waffle iron | Unbranded"
          class="thumb"
        >
          <img
            alt="waffle iron | Unbranded"
            height="423"
            loading="lazy"
            src="/images/e2.jpeg"
            width="638"
          />
        </figure>
        <div
          class="wrap"
        >
          <h2
            class="title"
          >
            <a
              class="link"
              href="/"
            >
              waffle iron
            </a>
          </h2>
          <h3
            class="subtitle"
          >
            Unbranded
          </h3>
          <p
            class="overline"
          >
            East Cheyannehaven
          </p>
          <div
            class="priceWrap"
          >
            <span
              class="label"
            >
              Concrete
            </span>
            <div
              class="priceBox"
            >
              <div
                class="oldPrice"
              >
                272.00
              </div>
              <div
                class="price"
              >
                487.00
              </div>
            </div>
          </div>
        </div>
      </article>
    </div>
  </article>
</DocumentFragment>
`;
