// Jest Snapshot v1, https://goo.gl/fbAQLP

exports[`renders application 1`] = `
<DocumentFragment>
  <div
    class="App"
  >
    <main>
      <article
        class="contentWrapper"
      >
        <div
          class="products"
        >
          <article
            class="card"
          >
            <div
              class="header"
            >
              <span
                class="tag"
              >
                Antone
              </span>
              <span
                class="tag"
              >
                Dianna
              </span>
              <button
                aria-label="add to favorites"
                class="button circle icon"
                type="button"
              >
                <svg
                  aria-hidden="true"
                  aria-label="favorite icon"
                  clip-rule="evenodd"
                  fill-rule="evenodd"
                  focusable="false"
                  viewBox="0 0 24 24"
                  xmlns="http://www.w3.org/2000/svg"
                >
                  <path
                    d="M12 21.593C6.37 16.054 1 11.296 1 7.191 1 3.4 4.068 2 6.281 2c1.312 0 4.151.501 5.719 4.457 1.59-3.968 4.464-4.447 5.726-4.447C20.266 2.01 23 3.631 23 7.191c0 4.069-5.136 8.625-11 14.402M17.726 1.01c-2.203 0-4.446 1.042-5.726 3.238C10.715 2.042 8.478 1 6.281 1 3.098 1 0 3.187 0 7.191 0 11.852 5.571 16.62 12 23c6.43-6.38 12-11.148 12-15.809 0-4.011-3.095-6.181-6.274-6.181"
                  />
                </svg>
              </button>
            </div>
            <figure
              aria-label="fan heater | Handmade"
              class="thumb"
            >
              <img
                alt="fan heater | Handmade"
                height="423"
                loading="lazy"
                src="/images/e0.jpeg"
                width="638"
              />
            </figure>
            <div
              class="wrap"
            >
              <h2
                class="title"
              >
                <a
                  class="link"
                  href="/"
                >
                  fan heater
                </a>
              </h2>
              <h3
                class="subtitle"
              >
                Handmade
              </h3>
              <p
                class="overline"
              >
                Palatine
              </p>
              <div
                class="priceWrap"
              >
                <span
                  class="label"
                >
                  Granite
                </span>
                <div
                  class="priceBox"
                >
                  <div
                    class="oldPrice"
                  >
                    377.00
                  </div>
                  <div
                    class="price"
                  >
                    315.00
                  </div>
                </div>
              </div>
            </div>
          </article>
          <article
            class="card"
          >
            <div
              class="header"
            >
              <span
                class="tag"
              >
                Antone
              </span>
              <span
                class="tag"
              >
                Dianna
              </span>
              <button
                aria-label="add to favorites"
                class="button circle icon"
                type="button"
              >
                <svg
                  aria-hidden="true"
                  aria-label="favorite icon"
                  clip-rule="evenodd"
                  fill-rule="evenodd"
                  focusable="false"
                  viewBox="0 0 24 24"
                  xmlns="http://www.w3.org/2000/svg"
                >
                  <path
                    d="M12 21.593C6.37 16.054 1 11.296 1 7.191 1 3.4 4.068 2 6.281 2c1.312 0 4.151.501 5.719 4.457 1.59-3.968 4.464-4.447 5.726-4.447C20.266 2.01 23 3.631 23 7.191c0 4.069-5.136 8.625-11 14.402M17.726 1.01c-2.203 0-4.446 1.042-5.726 3.238C10.715 2.042 8.478 1 6.281 1 3.098 1 0 3.187 0 7.191 0 11.852 5.571 16.62 12 23c6.43-6.38 12-11.148 12-15.809 0-4.011-3.095-6.181-6.274-6.181"
                  />
                </svg>
              </button>
            </div>
            <figure
              aria-label="thermal mass refrigerator | Fantastic"
              class="thumb"
            >
              <img
                alt="thermal mass refrigerator | Fantastic"
                height="423"
                loading="lazy"
                src="/images/e1.jpeg"
                width="638"
              />
            </figure>
            <div
              class="wrap"
            >
              <h2
                class="title"
              >
                <a
                  class="link"
                  href="/"
                >
                  thermal mass refrigerator
                </a>
              </h2>
              <h3
                class="subtitle"
              >
                Fantastic
              </h3>
              <p
                class="overline"
              >
                Johnson City
              </p>
              <div
                class="priceWrap"
              >
                <span
                  class="label"
                >
                  Plastic
                </span>
                <div
                  class="priceBox"
                >
                  <div
                    class="oldPrice"
                  >
                    254.00
                  </div>
                  <div
                    class="price"
                  >
                    603.00
                  </div>
                </div>
              </div>
            </div>
          </article>
          <article
            class="card"
          >
            <div
              class="header"
            >
              <span
                class="tag"
              >
                Antone
              </span>
              <span
                class="tag"
              >
                Dianna
              </span>
              <button
                aria-label="add to favorites"
                class="button circle icon"
                type="button"
              >
                <svg
                  aria-hidden="true"
                  aria-label="favorite icon"
                  clip-rule="evenodd"
                  fill-rule="evenodd"
                  focusable="false"
                  viewBox="0 0 24 24"
                  xmlns="http://www.w3.org/2000/svg"
                >
                  <path
                    d="M12 21.593C6.37 16.054 1 11.296 1 7.191 1 3.4 4.068 2 6.281 2c1.312 0 4.151.501 5.719 4.457 1.59-3.968 4.464-4.447 5.726-4.447C20.266 2.01 23 3.631 23 7.191c0 4.069-5.136 8.625-11 14.402M17.726 1.01c-2.203 0-4.446 1.042-5.726 3.238C10.715 2.042 8.478 1 6.281 1 3.098 1 0 3.187 0 7.191 0 11.852 5.571 16.62 12 23c6.43-6.38 12-11.148 12-15.809 0-4.011-3.095-6.181-6.274-6.181"
                  />
                </svg>
              </button>
            </div>
            <figure
              aria-label="waffle iron | Unbranded"
              class="thumb"
            >
              <img
                alt="waffle iron | Unbranded"
                height="423"
                loading="lazy"
                src="/images/e2.jpeg"
                width="638"
              />
            </figure>
            <div
              class="wrap"
            >
              <h2
                class="title"
              >
                <a
                  class="link"
                  href="/"
                >
                  waffle iron
                </a>
              </h2>
              <h3
                class="subtitle"
              >
                Unbranded
              </h3>
              <p
                class="overline"
              >
                East Cheyannehaven
              </p>
              <div
                class="priceWrap"
              >
                <span
                  class="label"
                >
                  Concrete
                </span>
                <div
                  class="priceBox"
                >
                  <div
                    class="oldPrice"
                  >
                    272.00
                  </div>
                  <div
                    class="price"
                  >
                    487.00
                  </div>
                </div>
              </div>
            </div>
          </article>
          <article
            class="card"
          >
            <div
              class="header"
            >
              <span
                class="tag"
              >
                Antone
              </span>
              <span
                class="tag"
              >
                Dianna
              </span>
              <button
                aria-label="add to favorites"
                class="button circle icon"
                type="button"
              >
                <svg
                  aria-hidden="true"
                  aria-label="favorite icon"
                  clip-rule="evenodd"
                  fill-rule="evenodd"
                  focusable="false"
                  viewBox="0 0 24 24"
                  xmlns="http://www.w3.org/2000/svg"
                >
                  <path
                    d="M12 21.593C6.37 16.054 1 11.296 1 7.191 1 3.4 4.068 2 6.281 2c1.312 0 4.151.501 5.719 4.457 1.59-3.968 4.464-4.447 5.726-4.447C20.266 2.01 23 3.631 23 7.191c0 4.069-5.136 8.625-11 14.402M17.726 1.01c-2.203 0-4.446 1.042-5.726 3.238C10.715 2.042 8.478 1 6.281 1 3.098 1 0 3.187 0 7.191 0 11.852 5.571 16.62 12 23c6.43-6.38 12-11.148 12-15.809 0-4.011-3.095-6.181-6.274-6.181"
                  />
                </svg>
              </button>
            </div>
            <figure
              aria-label="washing machine | Rustic"
              class="thumb"
            >
              <img
                alt="washing machine | Rustic"
                height="423"
                loading="lazy"
                src="/images/e3.jpeg"
                width="638"
              />
            </figure>
            <div
              class="wrap"
            >
              <h2
                class="title"
              >
                <a
                  class="link"
                  href="/"
                >
                  washing machine
                </a>
              </h2>
              <h3
                class="subtitle"
              >
                Rustic
              </h3>
              <p
                class="overline"
              >
                Mishawaka
              </p>
              <div
                class="priceWrap"
              >
                <span
                  class="label"
                >
                  Concrete
                </span>
                <div
                  class="priceBox"
                >
                  <div
                    class="oldPrice"
                  >
                    456.00
                  </div>
                  <div
                    class="price"
                  >
                    232.00
                  </div>
                </div>
              </div>
            </div>
          </article>
          <article
            class="card"
          >
            <div
              class="header"
            >
              <span
                class="tag"
              >
                Antone
              </span>
              <span
                class="tag"
              >
                Dianna
              </span>
              <button
                aria-label="add to favorites"
                class="button circle icon"
                type="button"
              >
                <svg
                  aria-hidden="true"
                  aria-label="favorite icon"
                  clip-rule="evenodd"
                  fill-rule="evenodd"
                  focusable="false"
                  viewBox="0 0 24 24"
                  xmlns="http://www.w3.org/2000/svg"
                >
                  <path
                    d="M12 21.593C6.37 16.054 1 11.296 1 7.191 1 3.4 4.068 2 6.281 2c1.312 0 4.151.501 5.719 4.457 1.59-3.968 4.464-4.447 5.726-4.447C20.266 2.01 23 3.631 23 7.191c0 4.069-5.136 8.625-11 14.402M17.726 1.01c-2.203 0-4.446 1.042-5.726 3.238C10.715 2.042 8.478 1 6.281 1 3.098 1 0 3.187 0 7.191 0 11.852 5.571 16.62 12 23c6.43-6.38 12-11.148 12-15.809 0-4.011-3.095-6.181-6.274-6.181"
                  />
                </svg>
              </button>
            </div>
            <figure
              aria-label="instant hot water dispenser | Rustic"
              class="thumb"
            >
              <img
                alt="instant hot water dispenser | Rustic"
                height="423"
                loading="lazy"
                src="/images/e4.jpeg"
                width="638"
              />
            </figure>
            <div
              class="wrap"
            >
              <h2
                class="title"
              >
                <a
                  class="link"
                  href="/"
                >
                  instant hot water dispenser
                </a>
              </h2>
              <h3
                class="subtitle"
              >
                Rustic
              </h3>
              <p
                class="overline"
              >
                Houston
              </p>
              <div
                class="priceWrap"
              >
                <span
                  class="label"
                >
                  Soft
                </span>
                <div
                  class="priceBox"
                >
                  <div
                    class="oldPrice"
                  >
                    726.00
                  </div>
                  <div
                    class="price"
                  >
                    481.00
                  </div>
                </div>
              </div>
            </div>
          </article>
          <article
            class="card"
          >
            <div
              class="header"
            >
              <span
                class="tag"
              >
                Antone
              </span>
              <span
                class="tag"
              >
                Dianna
              </span>
              <button
                aria-label="add to favorites"
                class="button circle icon"
                type="button"
              >
                <svg
                  aria-hidden="true"
                  aria-label="favorite icon"
                  clip-rule="evenodd"
                  fill-rule="evenodd"
                  focusable="false"
                  viewBox="0 0 24 24"
                  xmlns="http://www.w3.org/2000/svg"
                >
                  <path
                    d="M12 21.593C6.37 16.054 1 11.296 1 7.191 1 3.4 4.068 2 6.281 2c1.312 0 4.151.501 5.719 4.457 1.59-3.968 4.464-4.447 5.726-4.447C20.266 2.01 23 3.631 23 7.191c0 4.069-5.136 8.625-11 14.402M17.726 1.01c-2.203 0-4.446 1.042-5.726 3.238C10.715 2.042 8.478 1 6.281 1 3.098 1 0 3.187 0 7.191 0 11.852 5.571 16.62 12 23c6.43-6.38 12-11.148 12-15.809 0-4.011-3.095-6.181-6.274-6.181"
                  />
                </svg>
              </button>
            </div>
            <figure
              aria-label="dehumidifier | Handmade"
              class="thumb"
            >
              <img
                alt="dehumidifier | Handmade"
                height="423"
                loading="lazy"
                src="/images/e5.jpeg"
                width="638"
              />
            </figure>
            <div
              class="wrap"
            >
              <h2
                class="title"
              >
                <a
                  class="link"
                  href="/"
                >
                  dehumidifier
                </a>
              </h2>
              <h3
                class="subtitle"
              >
                Handmade
              </h3>
              <p
                class="overline"
              >
                Albany
              </p>
              <div
                class="priceWrap"
              >
                <span
                  class="label"
                >
                  Concrete
                </span>
                <div
                  class="priceBox"
                >
                  <div
                    class="oldPrice"
                  >
                    842.00
                  </div>
                  <div
                    class="price"
                  >
                    334.00
                  </div>
                </div>
              </div>
            </div>
          </article>
          <article
            class="card"
          >
            <div
              class="header"
            >
              <span
                class="tag"
              >
                Antone
              </span>
              <span
                class="tag"
              >
                Dianna
              </span>
              <button
                aria-label="add to favorites"
                class="button circle icon"
                type="button"
              >
                <svg
                  aria-hidden="true"
                  aria-label="favorite icon"
                  clip-rule="evenodd"
                  fill-rule="evenodd"
                  focusable="false"
                  viewBox="0 0 24 24"
                  xmlns="http://www.w3.org/2000/svg"
                >
                  <path
                    d="M12 21.593C6.37 16.054 1 11.296 1 7.191 1 3.4 4.068 2 6.281 2c1.312 0 4.151.501 5.719 4.457 1.59-3.968 4.464-4.447 5.726-4.447C20.266 2.01 23 3.631 23 7.191c0 4.069-5.136 8.625-11 14.402M17.726 1.01c-2.203 0-4.446 1.042-5.726 3.238C10.715 2.042 8.478 1 6.281 1 3.098 1 0 3.187 0 7.191 0 11.852 5.571 16.62 12 23c6.43-6.38 12-11.148 12-15.809 0-4.011-3.095-6.181-6.274-6.181"
                  />
                </svg>
              </button>
            </div>
            <figure
              aria-label="reflector oven | Generic"
              class="thumb"
            >
              <img
                alt="reflector oven | Generic"
                height="423"
                loading="lazy"
                src="/images/e6.jpeg"
                width="638"
              />
            </figure>
            <div
              class="wrap"
            >
              <h2
                class="title"
              >
                <a
                  class="link"
                  href="/"
                >
                  reflector oven
                </a>
              </h2>
              <h3
                class="subtitle"
              >
                Generic
              </h3>
              <p
                class="overline"
              >
                South Elnora
              </p>
              <div
                class="priceWrap"
              >
                <span
                  class="label"
                >
                  Steel
                </span>
                <div
                  class="priceBox"
                >
                  <div
                    class="oldPrice"
                  >
                    556.00
                  </div>
                  <div
                    class="price"
                  >
                    670.00
                  </div>
                </div>
              </div>
            </div>
          </article>
          <article
            class="card"
          >
            <div
              class="header"
            >
              <span
                class="tag"
              >
                Antone
              </span>
              <span
                class="tag"
              >
                Dianna
              </span>
              <button
                aria-label="add to favorites"
                class="button circle icon"
                type="button"
              >
                <svg
                  aria-hidden="true"
                  aria-label="favorite icon"
                  clip-rule="evenodd"
                  fill-rule="evenodd"
                  focusable="false"
                  viewBox="0 0 24 24"
                  xmlns="http://www.w3.org/2000/svg"
                >
                  <path
                    d="M12 21.593C6.37 16.054 1 11.296 1 7.191 1 3.4 4.068 2 6.281 2c1.312 0 4.151.501 5.719 4.457 1.59-3.968 4.464-4.447 5.726-4.447C20.266 2.01 23 3.631 23 7.191c0 4.069-5.136 8.625-11 14.402M17.726 1.01c-2.203 0-4.446 1.042-5.726 3.238C10.715 2.042 8.478 1 6.281 1 3.098 1 0 3.187 0 7.191 0 11.852 5.571 16.62 12 23c6.43-6.38 12-11.148 12-15.809 0-4.011-3.095-6.181-6.274-6.181"
                  />
                </svg>
              </button>
            </div>
            <figure
              aria-label="garbage disposal unit | Incredible"
              class="thumb"
            >
              <img
                alt="garbage disposal unit | Incredible"
                height="423"
                loading="lazy"
                src="/images/e6.jpeg"
                width="638"
              />
            </figure>
            <div
              class="wrap"
            >
              <h2
                class="title"
              >
                <a
                  class="link"
                  href="/"
                >
                  garbage disposal unit
                </a>
              </h2>
              <h3
                class="subtitle"
              >
                Incredible
              </h3>
              <p
                class="overline"
              >
                Bartfort
              </p>
              <div
                class="priceWrap"
              >
                <span
                  class="label"
                >
                  Metal
                </span>
                <div
                  class="priceBox"
                >
                  <div
                    class="oldPrice"
                  >
                    112.00
                  </div>
                  <div
                    class="price"
                  >
                    157.00
                  </div>
                </div>
              </div>
            </div>
          </article>
          <article
            class="card"
          >
            <div
              class="header"
            >
              <span
                class="tag"
              >
                Antone
              </span>
              <span
                class="tag"
              >
                Dianna
              </span>
              <button
                aria-label="add to favorites"
                class="button circle icon"
                type="button"
              >
                <svg
                  aria-hidden="true"
                  aria-label="favorite icon"
                  clip-rule="evenodd"
                  fill-rule="evenodd"
                  focusable="false"
                  viewBox="0 0 24 24"
                  xmlns="http://www.w3.org/2000/svg"
                >
                  <path
                    d="M12 21.593C6.37 16.054 1 11.296 1 7.191 1 3.4 4.068 2 6.281 2c1.312 0 4.151.501 5.719 4.457 1.59-3.968 4.464-4.447 5.726-4.447C20.266 2.01 23 3.631 23 7.191c0 4.069-5.136 8.625-11 14.402M17.726 1.01c-2.203 0-4.446 1.042-5.726 3.238C10.715 2.042 8.478 1 6.281 1 3.098 1 0 3.187 0 7.191 0 11.852 5.571 16.62 12 23c6.43-6.38 12-11.148 12-15.809 0-4.011-3.095-6.181-6.274-6.181"
                  />
                </svg>
              </button>
            </div>
            <figure
              aria-label="beverage opener | Generic"
              class="thumb"
            >
              <img
                alt="beverage opener | Generic"
                height="423"
                loading="lazy"
                src="/images/e5.jpeg"
                width="638"
              />
            </figure>
            <div
              class="wrap"
            >
              <h2
                class="title"
              >
                <a
                  class="link"
                  href="/"
                >
                  beverage opener
                </a>
              </h2>
              <h3
                class="subtitle"
              >
                Generic
              </h3>
              <p
                class="overline"
              >
                North Marshall
              </p>
              <div
                class="priceWrap"
              >
                <span
                  class="label"
                >
                  Wooden
                </span>
                <div
                  class="priceBox"
                >
                  <div
                    class="oldPrice"
                  >
                    925.00
                  </div>
                  <div
                    class="price"
                  >
                    594.00
                  </div>
                </div>
              </div>
            </div>
          </article>
          <article
            class="card"
          >
            <div
              class="header"
            >
              <span
                class="tag"
              >
                Antone
              </span>
              <span
                class="tag"
              >
                Dianna
              </span>
              <button
                aria-label="add to favorites"
                class="button circle icon"
                type="button"
              >
                <svg
                  aria-hidden="true"
                  aria-label="favorite icon"
                  clip-rule="evenodd"
                  fill-rule="evenodd"
                  focusable="false"
                  viewBox="0 0 24 24"
                  xmlns="http://www.w3.org/2000/svg"
                >
                  <path
                    d="M12 21.593C6.37 16.054 1 11.296 1 7.191 1 3.4 4.068 2 6.281 2c1.312 0 4.151.501 5.719 4.457 1.59-3.968 4.464-4.447 5.726-4.447C20.266 2.01 23 3.631 23 7.191c0 4.069-5.136 8.625-11 14.402M17.726 1.01c-2.203 0-4.446 1.042-5.726 3.238C10.715 2.042 8.478 1 6.281 1 3.098 1 0 3.187 0 7.191 0 11.852 5.571 16.62 12 23c6.43-6.38 12-11.148 12-15.809 0-4.011-3.095-6.181-6.274-6.181"
                  />
                </svg>
              </button>
            </div>
            <figure
              aria-label="rice cooker | Licensed"
              class="thumb"
            >
              <img
                alt="rice cooker | Licensed"
                height="423"
                loading="lazy"
                src="/images/e4.jpeg"
                width="638"
              />
            </figure>
            <div
              class="wrap"
            >
              <h2
                class="title"
              >
                <a
                  class="link"
                  href="/"
                >
                  rice cooker
                </a>
              </h2>
              <h3
                class="subtitle"
              >
                Licensed
              </h3>
              <p
                class="overline"
              >
                Port Tylerstad
              </p>
              <div
                class="priceWrap"
              >
                <span
                  class="label"
                >
                  Plastic
                </span>
                <div
                  class="priceBox"
                >
                  <div
                    class="oldPrice"
                  >
                    776.00
                  </div>
                  <div
                    class="price"
                  >
                    475.00
                  </div>
                </div>
              </div>
            </div>
          </article>
          <article
            class="card"
          >
            <div
              class="header"
            >
              <span
                class="tag"
              >
                Antone
              </span>
              <span
                class="tag"
              >
                Dianna
              </span>
              <button
                aria-label="add to favorites"
                class="button circle icon"
                type="button"
              >
                <svg
                  aria-hidden="true"
                  aria-label="favorite icon"
                  clip-rule="evenodd"
                  fill-rule="evenodd"
                  focusable="false"
                  viewBox="0 0 24 24"
                  xmlns="http://www.w3.org/2000/svg"
                >
                  <path
                    d="M12 21.593C6.37 16.054 1 11.296 1 7.191 1 3.4 4.068 2 6.281 2c1.312 0 4.151.501 5.719 4.457 1.59-3.968 4.464-4.447 5.726-4.447C20.266 2.01 23 3.631 23 7.191c0 4.069-5.136 8.625-11 14.402M17.726 1.01c-2.203 0-4.446 1.042-5.726 3.238C10.715 2.042 8.478 1 6.281 1 3.098 1 0 3.187 0 7.191 0 11.852 5.571 16.62 12 23c6.43-6.38 12-11.148 12-15.809 0-4.011-3.095-6.181-6.274-6.181"
                  />
                </svg>
              </button>
            </div>
            <figure
              aria-label="trivet | Practical"
              class="thumb"
            >
              <img
                alt="trivet | Practical"
                height="423"
                loading="lazy"
                src="/images/e3.jpeg"
                width="638"
              />
            </figure>
            <div
              class="wrap"
            >
              <h2
                class="title"
              >
                <a
                  class="link"
                  href="/"
                >
                  trivet
                </a>
              </h2>
              <h3
                class="subtitle"
              >
                Practical
              </h3>
              <p
                class="overline"
              >
                Cristinaville
              </p>
              <div
                class="priceWrap"
              >
                <span
                  class="label"
                >
                  Concrete
                </span>
                <div
                  class="priceBox"
                >
                  <div
                    class="oldPrice"
                  >
                    451.00
                  </div>
                  <div
                    class="price"
                  >
                    11.00
                  </div>
                </div>
              </div>
            </div>
          </article>
          <article
            class="card"
          >
            <div
              class="header"
            >
              <span
                class="tag"
              >
                Antone
              </span>
              <span
                class="tag"
              >
                Dianna
              </span>
              <button
                aria-label="add to favorites"
                class="button circle icon"
                type="button"
              >
                <svg
                  aria-hidden="true"
                  aria-label="favorite icon"
                  clip-rule="evenodd"
                  fill-rule="evenodd"
                  focusable="false"
                  viewBox="0 0 24 24"
                  xmlns="http://www.w3.org/2000/svg"
                >
                  <path
                    d="M12 21.593C6.37 16.054 1 11.296 1 7.191 1 3.4 4.068 2 6.281 2c1.312 0 4.151.501 5.719 4.457 1.59-3.968 4.464-4.447 5.726-4.447C20.266 2.01 23 3.631 23 7.191c0 4.069-5.136 8.625-11 14.402M17.726 1.01c-2.203 0-4.446 1.042-5.726 3.238C10.715 2.042 8.478 1 6.281 1 3.098 1 0 3.187 0 7.191 0 11.852 5.571 16.62 12 23c6.43-6.38 12-11.148 12-15.809 0-4.011-3.095-6.181-6.274-6.181"
                  />
                </svg>
              </button>
            </div>
            <figure
              aria-label="waffle iron | Handmade"
              class="thumb"
            >
              <img
                alt="waffle iron | Handmade"
                height="423"
                loading="lazy"
                src="/images/e2.jpeg"
                width="638"
              />
            </figure>
            <div
              class="wrap"
            >
              <h2
                class="title"
              >
                <a
                  class="link"
                  href="/"
                >
                  waffle iron
                </a>
              </h2>
              <h3
                class="subtitle"
              >
                Handmade
              </h3>
              <p
                class="overline"
              >
                Willfort
              </p>
              <div
                class="priceWrap"
              >
                <span
                  class="label"
                >
                  Cotton
                </span>
                <div
                  class="priceBox"
                >
                  <div
                    class="oldPrice"
                  >
                    726.00
                  </div>
                  <div
                    class="price"
                  >
                    195.00
                  </div>
                </div>
              </div>
            </div>
          </article>
          <article
            class="card"
          >
            <div
              class="header"
            >
              <span
                class="tag"
              >
                Antone
              </span>
              <span
                class="tag"
              >
                Dianna
              </span>
              <button
                aria-label="add to favorites"
                class="button circle icon"
                type="button"
              >
                <svg
                  aria-hidden="true"
                  aria-label="favorite icon"
                  clip-rule="evenodd"
                  fill-rule="evenodd"
                  focusable="false"
                  viewBox="0 0 24 24"
                  xmlns="http://www.w3.org/2000/svg"
                >
                  <path
                    d="M12 21.593C6.37 16.054 1 11.296 1 7.191 1 3.4 4.068 2 6.281 2c1.312 0 4.151.501 5.719 4.457 1.59-3.968 4.464-4.447 5.726-4.447C20.266 2.01 23 3.631 23 7.191c0 4.069-5.136 8.625-11 14.402M17.726 1.01c-2.203 0-4.446 1.042-5.726 3.238C10.715 2.042 8.478 1 6.281 1 3.098 1 0 3.187 0 7.191 0 11.852 5.571 16.62 12 23c6.43-6.38 12-11.148 12-15.809 0-4.011-3.095-6.181-6.274-6.181"
                  />
                </svg>
              </button>
            </div>
            <figure
              aria-label="rotisserie | Tasty"
              class="thumb"
            >
              <img
                alt="rotisserie | Tasty"
                height="423"
                loading="lazy"
                src="/images/e1.jpeg"
                width="638"
              />
            </figure>
            <div
              class="wrap"
            >
              <h2
                class="title"
              >
                <a
                  class="link"
                  href="/"
                >
                  rotisserie
                </a>
              </h2>
              <h3
                class="subtitle"
              >
                Tasty
              </h3>
              <p
                class="overline"
              >
                North Anita
              </p>
              <div
                class="priceWrap"
              >
                <span
                  class="label"
                >
                  Plastic
                </span>
                <div
                  class="priceBox"
                >
                  <div
                    class="oldPrice"
                  >
                    802.00
                  </div>
                  <div
                    class="price"
                  >
                    807.00
                  </div>
                </div>
              </div>
            </div>
          </article>
          <article
            class="card"
          >
            <div
              class="header"
            >
              <span
                class="tag"
              >
                Antone
              </span>
              <span
                class="tag"
              >
                Dianna
              </span>
              <button
                aria-label="add to favorites"
                class="button circle icon"
                type="button"
              >
                <svg
                  aria-hidden="true"
                  aria-label="favorite icon"
                  clip-rule="evenodd"
                  fill-rule="evenodd"
                  focusable="false"
                  viewBox="0 0 24 24"
                  xmlns="http://www.w3.org/2000/svg"
                >
                  <path
                    d="M12 21.593C6.37 16.054 1 11.296 1 7.191 1 3.4 4.068 2 6.281 2c1.312 0 4.151.501 5.719 4.457 1.59-3.968 4.464-4.447 5.726-4.447C20.266 2.01 23 3.631 23 7.191c0 4.069-5.136 8.625-11 14.402M17.726 1.01c-2.203 0-4.446 1.042-5.726 3.238C10.715 2.042 8.478 1 6.281 1 3.098 1 0 3.187 0 7.191 0 11.852 5.571 16.62 12 23c6.43-6.38 12-11.148 12-15.809 0-4.011-3.095-6.181-6.274-6.181"
                  />
                </svg>
              </button>
            </div>
            <figure
              aria-label="coffee percolator | Gorgeous"
              class="thumb"
            >
              <img
                alt="coffee percolator | Gorgeous"
                height="423"
                loading="lazy"
                src="/images/e0.jpeg"
                width="638"
              />
            </figure>
            <div
              class="wrap"
            >
              <h2
                class="title"
              >
                <a
                  class="link"
                  href="/"
                >
                  coffee percolator
                </a>
              </h2>
              <h3
                class="subtitle"
              >
                Gorgeous
              </h3>
              <p
                class="overline"
              >
                Port Dariobury
              </p>
              <div
                class="priceWrap"
              >
                <span
                  class="label"
                >
                  Concrete
                </span>
                <div
                  class="priceBox"
                >
                  <div
                    class="oldPrice"
                  >
                    183.00
                  </div>
                  <div
                    class="price"
                  >
                    433.00
                  </div>
                </div>
              </div>
            </div>
          </article>
          <article
            class="card"
          >
            <div
              class="header"
            >
              <span
                class="tag"
              >
                Antone
              </span>
              <span
                class="tag"
              >
                Dianna
              </span>
              <button
                aria-label="add to favorites"
                class="button circle icon"
                type="button"
              >
                <svg
                  aria-hidden="true"
                  aria-label="favorite icon"
                  clip-rule="evenodd"
                  fill-rule="evenodd"
                  focusable="false"
                  viewBox="0 0 24 24"
                  xmlns="http://www.w3.org/2000/svg"
                >
                  <path
                    d="M12 21.593C6.37 16.054 1 11.296 1 7.191 1 3.4 4.068 2 6.281 2c1.312 0 4.151.501 5.719 4.457 1.59-3.968 4.464-4.447 5.726-4.447C20.266 2.01 23 3.631 23 7.191c0 4.069-5.136 8.625-11 14.402M17.726 1.01c-2.203 0-4.446 1.042-5.726 3.238C10.715 2.042 8.478 1 6.281 1 3.098 1 0 3.187 0 7.191 0 11.852 5.571 16.62 12 23c6.43-6.38 12-11.148 12-15.809 0-4.011-3.095-6.181-6.274-6.181"
                  />
                </svg>
              </button>
            </div>
            <figure
              aria-label="dishwasher | Intelligent"
              class="thumb"
            >
              <img
                alt="dishwasher | Intelligent"
                height="423"
                loading="lazy"
                src="/images/e6.jpeg"
                width="638"
              />
            </figure>
            <div
              class="wrap"
            >
              <h2
                class="title"
              >
                <a
                  class="link"
                  href="/"
                >
                  dishwasher
                </a>
              </h2>
              <h3
                class="subtitle"
              >
                Intelligent
              </h3>
              <p
                class="overline"
              />
              <div
                class="priceWrap"
              >
                <span
                  class="label"
                >
                  Granite
                </span>
                <div
                  class="priceBox"
                >
                  <div
                    class="oldPrice"
                  >
                    689.00
                  </div>
                  <div
                    class="price"
                  >
                    224.00
                  </div>
                </div>
              </div>
            </div>
          </article>
          <article
            class="card"
          >
            <div
              class="header"
            >
              <span
                class="tag"
              >
                Antone
              </span>
              <span
                class="tag"
              >
                Dianna
              </span>
              <button
                aria-label="add to favorites"
                class="button circle icon"
                type="button"
              >
                <svg
                  aria-hidden="true"
                  aria-label="favorite icon"
                  clip-rule="evenodd"
                  fill-rule="evenodd"
                  focusable="false"
                  viewBox="0 0 24 24"
                  xmlns="http://www.w3.org/2000/svg"
                >
                  <path
                    d="M12 21.593C6.37 16.054 1 11.296 1 7.191 1 3.4 4.068 2 6.281 2c1.312 0 4.151.501 5.719 4.457 1.59-3.968 4.464-4.447 5.726-4.447C20.266 2.01 23 3.631 23 7.191c0 4.069-5.136 8.625-11 14.402M17.726 1.01c-2.203 0-4.446 1.042-5.726 3.238C10.715 2.042 8.478 1 6.281 1 3.098 1 0 3.187 0 7.191 0 11.852 5.571 16.62 12 23c6.43-6.38 12-11.148 12-15.809 0-4.011-3.095-6.181-6.274-6.181"
                  />
                </svg>
              </button>
            </div>
            <figure
              aria-label="sewing machine | Tasty"
              class="thumb"
            >
              <img
                alt="sewing machine | Tasty"
                height="423"
                loading="lazy"
                src="/images/e4.jpeg"
                width="638"
              />
            </figure>
            <div
              class="wrap"
            >
              <h2
                class="title"
              >
                <a
                  class="link"
                  href="/"
                >
                  sewing machine
                </a>
              </h2>
              <h3
                class="subtitle"
              >
                Tasty
              </h3>
              <p
                class="overline"
              >
                Margeview
              </p>
              <div
                class="priceWrap"
              >
                <span
                  class="label"
                >
                  Metal
                </span>
                <div
                  class="priceBox"
                >
                  <div
                    class="oldPrice"
                  >
                    817.00
                  </div>
                  <div
                    class="price"
                  >
                    529.00
                  </div>
                </div>
              </div>
            </div>
          </article>
          <article
            class="card"
          >
            <div
              class="header"
            >
              <span
                class="tag"
              >
                Antone
              </span>
              <span
                class="tag"
              >
                Dianna
              </span>
              <button
                aria-label="add to favorites"
                class="button circle icon"
                type="button"
              >
                <svg
                  aria-hidden="true"
                  aria-label="favorite icon"
                  clip-rule="evenodd"
                  fill-rule="evenodd"
                  focusable="false"
                  viewBox="0 0 24 24"
                  xmlns="http://www.w3.org/2000/svg"
                >
                  <path
                    d="M12 21.593C6.37 16.054 1 11.296 1 7.191 1 3.4 4.068 2 6.281 2c1.312 0 4.151.501 5.719 4.457 1.59-3.968 4.464-4.447 5.726-4.447C20.266 2.01 23 3.631 23 7.191c0 4.069-5.136 8.625-11 14.402M17.726 1.01c-2.203 0-4.446 1.042-5.726 3.238C10.715 2.042 8.478 1 6.281 1 3.098 1 0 3.187 0 7.191 0 11.852 5.571 16.62 12 23c6.43-6.38 12-11.148 12-15.809 0-4.011-3.095-6.181-6.274-6.181"
                  />
                </svg>
              </button>
            </div>
            <figure
              aria-label="trouser press | Handcrafted"
              class="thumb"
            >
              <img
                alt="trouser press | Handcrafted"
                height="423"
                loading="lazy"
                src="/images/e2.jpeg"
                width="638"
              />
            </figure>
            <div
              class="wrap"
            >
              <h2
                class="title"
              >
                <a
                  class="link"
                  href="/"
                >
                  trouser press
                </a>
              </h2>
              <h3
                class="subtitle"
              >
                Handcrafted
              </h3>
              <p
                class="overline"
              />
              <div
                class="priceWrap"
              >
                <span
                  class="label"
                >
                  Wooden
                </span>
                <div
                  class="priceBox"
                >
                  <div
                    class="oldPrice"
                  >
                    152.00
                  </div>
                  <div
                    class="price"
                  >
                    320.00
                  </div>
                </div>
              </div>
            </div>
          </article>
          <article
            class="card"
          >
            <div
              class="header"
            >
              <span
                class="tag"
              >
                Antone
              </span>
              <span
                class="tag"
              >
                Dianna
              </span>
              <button
                aria-label="add to favorites"
                class="button circle icon"
                type="button"
              >
                <svg
                  aria-hidden="true"
                  aria-label="favorite icon"
                  clip-rule="evenodd"
                  fill-rule="evenodd"
                  focusable="false"
                  viewBox="0 0 24 24"
                  xmlns="http://www.w3.org/2000/svg"
                >
                  <path
                    d="M12 21.593C6.37 16.054 1 11.296 1 7.191 1 3.4 4.068 2 6.281 2c1.312 0 4.151.501 5.719 4.457 1.59-3.968 4.464-4.447 5.726-4.447C20.266 2.01 23 3.631 23 7.191c0 4.069-5.136 8.625-11 14.402M17.726 1.01c-2.203 0-4.446 1.042-5.726 3.238C10.715 2.042 8.478 1 6.281 1 3.098 1 0 3.187 0 7.191 0 11.852 5.571 16.62 12 23c6.43-6.38 12-11.148 12-15.809 0-4.011-3.095-6.181-6.274-6.181"
                  />
                </svg>
              </button>
            </div>
            <figure
              aria-label="self-cleaning oven | Intelligent"
              class="thumb"
            >
              <img
                alt="self-cleaning oven | Intelligent"
                height="423"
                loading="lazy"
                src="/images/e3.jpeg"
                width="638"
              />
            </figure>
            <div
              class="wrap"
            >
              <h2
                class="title"
              >
                <a
                  class="link"
                  href="/"
                >
                  self-cleaning oven
                </a>
              </h2>
              <h3
                class="subtitle"
              >
                Intelligent
              </h3>
              <p
                class="overline"
              />
              <div
                class="priceWrap"
              >
                <span
                  class="label"
                >
                  Wooden
                </span>
                <div
                  class="priceBox"
                >
                  <div
                    class="oldPrice"
                  >
                    513.00
                  </div>
                  <div
                    class="price"
                  >
                    609.00
                  </div>
                </div>
              </div>
            </div>
          </article>
          <article
            class="card"
          >
            <div
              class="header"
            >
              <span
                class="tag"
              >
                Antone
              </span>
              <span
                class="tag"
              >
                Dianna
              </span>
              <button
                aria-label="add to favorites"
                class="button circle icon"
                type="button"
              >
                <svg
                  aria-hidden="true"
                  aria-label="favorite icon"
                  clip-rule="evenodd"
                  fill-rule="evenodd"
                  focusable="false"
                  viewBox="0 0 24 24"
                  xmlns="http://www.w3.org/2000/svg"
                >
                  <path
                    d="M12 21.593C6.37 16.054 1 11.296 1 7.191 1 3.4 4.068 2 6.281 2c1.312 0 4.151.501 5.719 4.457 1.59-3.968 4.464-4.447 5.726-4.447C20.266 2.01 23 3.631 23 7.191c0 4.069-5.136 8.625-11 14.402M17.726 1.01c-2.203 0-4.446 1.042-5.726 3.238C10.715 2.042 8.478 1 6.281 1 3.098 1 0 3.187 0 7.191 0 11.852 5.571 16.62 12 23c6.43-6.38 12-11.148 12-15.809 0-4.011-3.095-6.181-6.274-6.181"
                  />
                </svg>
              </button>
            </div>
            <figure
              aria-label="flame supervision device | Sleek"
              class="thumb"
            >
              <img
                alt="flame supervision device | Sleek"
                height="423"
                loading="lazy"
                src="/images/e6.jpeg"
                width="638"
              />
            </figure>
            <div
              class="wrap"
            >
              <h2
                class="title"
              >
                <a
                  class="link"
                  href="/"
                >
                  flame supervision device
                </a>
              </h2>
              <h3
                class="subtitle"
              >
                Sleek
              </h3>
              <p
                class="overline"
              >
                Wunschberg
              </p>
              <div
                class="priceWrap"
              >
                <span
                  class="label"
                >
                  Frozen
                </span>
                <div
                  class="priceBox"
                >
                  <div
                    class="oldPrice"
                  >
                    989.00
                  </div>
                  <div
                    class="price"
                  >
                    194.00
                  </div>
                </div>
              </div>
            </div>
          </article>
          <article
            class="card"
          >
            <div
              class="header"
            >
              <span
                class="tag"
              >
                Antone
              </span>
              <span
                class="tag"
              >
                Dianna
              </span>
              <button
                aria-label="add to favorites"
                class="button circle icon"
                type="button"
              >
                <svg
                  aria-hidden="true"
                  aria-label="favorite icon"
                  clip-rule="evenodd"
                  fill-rule="evenodd"
                  focusable="false"
                  viewBox="0 0 24 24"
                  xmlns="http://www.w3.org/2000/svg"
                >
                  <path
                    d="M12 21.593C6.37 16.054 1 11.296 1 7.191 1 3.4 4.068 2 6.281 2c1.312 0 4.151.501 5.719 4.457 1.59-3.968 4.464-4.447 5.726-4.447C20.266 2.01 23 3.631 23 7.191c0 4.069-5.136 8.625-11 14.402M17.726 1.01c-2.203 0-4.446 1.042-5.726 3.238C10.715 2.042 8.478 1 6.281 1 3.098 1 0 3.187 0 7.191 0 11.852 5.571 16.62 12 23c6.43-6.38 12-11.148 12-15.809 0-4.011-3.095-6.181-6.274-6.181"
                  />
                </svg>
              </button>
            </div>
            <figure
              aria-label="espresso machine | Rustic"
              class="thumb"
            >
              <img
                alt="espresso machine | Rustic"
                height="423"
                loading="lazy"
                src="/images/e0.jpeg"
                width="638"
              />
            </figure>
            <div
              class="wrap"
            >
              <h2
                class="title"
              >
                <a
                  class="link"
                  href="/"
                >
                  espresso machine
                </a>
              </h2>
              <h3
                class="subtitle"
              >
                Rustic
              </h3>
              <p
                class="overline"
              />
              <div
                class="priceWrap"
              >
                <span
                  class="label"
                >
                  Wooden
                </span>
                <div
                  class="priceBox"
                >
                  <div
                    class="oldPrice"
                  >
                    822.00
                  </div>
                  <div
                    class="price"
                  >
                    557.00
                  </div>
                </div>
              </div>
            </div>
          </article>
        </div>
      </article>
    </main>
  </div>
</DocumentFragment>
`;
